[
	{
		"_id": 11,
		"parentId": "1",
		"text": "Home",
		"order": 10,
		"name": "Home",
		"level": 1
	},
	{
		"_id": 12,
		"parentId": "1",
		"text": "Properties",
		"order": 20,
		"name": "Properties",
		"level": 1
	},
	{
		"_id": 111,
		"parentId": "11",
		"text": "Furniture",
		"order": 10,
		"name": "Furniture",
		"level": 3
	},
	{
		"_id": 112,
		"parentId": "11",
		"text": "Kitchen And Dining",
		"order": 20,
		"name": "Kitchen And Dining",
		"level": 3
	},
	{
		"_id": 113,
		"parentId": "11",
		"text": "Home Appliances",
		"order": 30,
		"name": "Home Appliances",
		"level": 3
	},
	{
		"_id": 121,
		"parentId": "12",
		"text": "Residential",
		"order": 10,
		"name": "Residential",
		"level": 3
	},
	{
		"_id": 122,
		"parentId": "12",
		"text": "Commercial",
		"order": 20,
		"name": "Commercial",
		"level": 3
	},
	{
		"_id": 1111,
		"parentId": "111",
		"text": "Home Furniture",
		"order": 10,
		"name": "Home Furniture",
		"level": 4
	},
	{
		"_id": 1112,
		"parentId": "111",
		"text": "Commercial Furniture",
		"order": 20,
		"name": "Commercial Furniture",
		"level": 4
	},
	{
		"_id": 1113,
		"parentId": "111",
		"text": "Outdoor Furniture",
		"order": 30,
		"name": "Outdoor Furniture",
		"level": 4
	},
	{
		"_id": 1114,
		"parentId": "111",
		"text": "Furniture Hardware",
		"order": 40,
		"name": "Furniture Hardware",
		"level": 4
	},
	{
		"_id": 1115,
		"parentId": "111",
		"text": "Furniture Parts",
		"order": 50,
		"name": "Furniture Parts",
		"level": 4
	},
	{
		"_id": 1116,
		"parentId": "111",
		"text": "Children Furniture",
		"order": 60,
		"name": "Children Furniture",
		"level": 4
	},
	{
		"_id": 1211,
		"parentId": "121",
		"text": "Terrace House",
		"order": 10,
		"name": "Terrace House",
		"level": 4
	},
	{
		"_id": 1212,
		"parentId": "121",
		"text": "Apartment",
		"order": 20,
		"name": "Apartment",
		"level": 4
	},
	{
		"_id": 1213,
		"parentId": "121",
		"text": "Villa / Bungalow",
		"order": 30,
		"name": "Villa / Bungalow",
		"level": 4
	},
	{
		"_id": 1214,
		"parentId": "121",
		"text": "Room",
		"order": 40,
		"name": "Room",
		"level": 4
	},
	{
		"_id": 1215,
		"parentId": "121",
		"text": "Condos",
		"order": 50,
		"name": "Condos",
		"level": 4
	},
	{
		"_id": 1221,
		"parentId": "122",
		"text": "Office",
		"order": 10,
		"name": "Office",
		"level": 4
	},
	{
		"_id": 1222,
		"parentId": "122",
		"text": "Shops",
		"order": 20,
		"name": "Shops",
		"level": 4
	},
	{
		"_id": 1223,
		"parentId": "122",
		"text": "Retail Space",
		"order": 30,
		"name": "Retail Space",
		"level": 4
	},
	{
		"_id": 1224,
		"parentId": "122",
		"text": "Retail Office",
		"order": 40,
		"name": "Retail Office",
		"level": 4
	},
	{
		"_id": 1225,
		"parentId": "122",
		"text": "Soho",
		"order": 50,
		"name": "Soho",
		"level": 4
	},
	{
		"_id": 11111,
		"parentId": "1111",
		"text": "Living Room Furniture",
		"order": 10,
		"name": "Living Room Furniture",
		"level": 5
	},
	{
		"_id": 11112,
		"parentId": "1111",
		"text": "Bedroom Furniture",
		"order": 20,
		"name": "Bedroom Furniture",
		"level": 5
	},
	{
		"_id": 11113,
		"parentId": "1111",
		"text": "Dining Room Furniture",
		"order": 30,
		"name": "Dining Room Furniture",
		"level": 5
	},
	{
		"_id": 11114,
		"parentId": "1111",
		"text": "Bathroom Furniture",
		"order": 40,
		"name": "Bathroom Furniture",
		"level": 5
	},
	{
		"_id": 11115,
		"parentId": "1111",
		"text": "Other Home Furniture",
		"order": 50,
		"name": "Other Home Furniture",
		"level": 5
	},
	{
		"_id": 11116,
		"parentId": "1111",
		"text": "Kitchen Furniture",
		"order": 60,
		"name": "Kitchen Furniture",
		"level": 5
	},
	{
		"_id": 11161,
		"parentId": "1116",
		"text": "Children Chairs",
		"order": 10,
		"name": "Children Chairs",
		"level": 5
	},
	{
		"_id": 11162,
		"parentId": "1116",
		"text": "Children Beds",
		"order": 20,
		"name": "Children Beds",
		"level": 5
	},
	{
		"_id": 11163,
		"parentId": "1116",
		"text": "Children Tables",
		"order": 30,
		"name": "Children Tables",
		"level": 5
	},
	{
		"_id": 11164,
		"parentId": "1116",
		"text": "Children Cabinets",
		"order": 40,
		"name": "Children Cabinets",
		"level": 5
	},
	{
		"_id": 111111,
		"parentId": "11111",
		"text": "Living Room Sofas",
		"order": 10,
		"name": "Living Room Sofas",
		"level": 6
	},
	{
		"_id": 111112,
		"parentId": "11111",
		"text": "Living Room Chairs",
		"order": 20,
		"name": "Living Room Chairs",
		"level": 6
	},
	{
		"_id": 111113,
		"parentId": "11111",
		"text": "Coffee Tables",
		"order": 30,
		"name": "Coffee Tables",
		"level": 6
	},
	{
		"_id": 111114,
		"parentId": "11111",
		"text": "Living Room Cabinets",
		"order": 40,
		"name": "Living Room Cabinets",
		"level": 6
	},
	{
		"_id": 111115,
		"parentId": "11111",
		"text": "Stools & Ottomans",
		"order": 50,
		"name": "Stools & Ottomans",
		"level": 6
	},
	{
		"_id": 111116,
		"parentId": "11111",
		"text": "TV Stands",
		"order": 60,
		"name": "TV Stands",
		"level": 6
	},
	{
		"_id": 111117,
		"parentId": "11111",
		"text": "Coat Racks",
		"order": 70,
		"name": "Coat Racks",
		"level": 6
	},
	{
		"_id": 111118,
		"parentId": "11111",
		"text": "Shoe Racks",
		"order": 80,
		"name": "Shoe Racks",
		"level": 6
	},
	{
		"_id": 111119,
		"parentId": "11111",
		"text": "Bookcases",
		"order": 90,
		"name": "Bookcases",
		"level": 6
	},
	{
		"_id": 111121,
		"parentId": "11112",
		"text": "Mattreses",
		"order": 10,
		"name": "Mattreses",
		"level": 6
	},
	{
		"_id": 111122,
		"parentId": "11112",
		"text": "Beds",
		"order": 20,
		"name": "Beds",
		"level": 6
	},
	{
		"_id": 111123,
		"parentId": "11112",
		"text": "Wardrobes",
		"order": 30,
		"name": "Wardrobes",
		"level": 6
	},
	{
		"_id": 111124,
		"parentId": "11112",
		"text": "Bedroom Sets",
		"order": 40,
		"name": "Bedroom Sets",
		"level": 6
	},
	{
		"_id": 111125,
		"parentId": "11112",
		"text": "Dressers",
		"order": 50,
		"name": "Dressers",
		"level": 6
	}
]